{
    "air": 1,
    "air_bookings": [
        {
            "air_booking_detail": {
                "customer_booking_status": "true",
                "is_apis_required": "false",
                "is_intl_spl_rt_solution": "true",
                "loyalty_user_type": "CTONE",
                "product_by_domain": "India Domestic",
                "searched_sector": "DEL-BLR",
                "segments_count": 1
            },
            "air_booking_infos": [
                {
                    "auto_refund": "N",
                    "booking_class": "W",
                    "booking_status": "Z",
                    "cabin_type": "E",
                    "external_references": [],
                    "multipcc_rev": 0,
                    "pax_info_seq_no": 1,
                    "pricing_object_seq_no": 1,
                    "seat_number": "",
                    "segment_seq_no": 1,
                    "seq_no": 1,
                    "status_history": 0,
                    "ticket_type": "E",
                    "amend_insurance_provider": "digit",
                    "amend_insurance_premium": 120.89
                }
            ],
            "air_booking_type": "D",
            "air_itinerary_type": "air-product",
            "external_references": [
                {
                    "name": "DESIGN_VERSION",
                    "value": "v2"
                },
                {
                    "name": "Coupon:SHACHI",
                    "value": "Promocode:CTtest-Domestic"
                },
                {
                    "name": "sessiontoken-Amadeus-DEL-BLR-6885755715-86f8-414b-a20a-aaa3f82b9f7a",
                    "value": "|01F8IN512V|5"
                }
            ],
            "flights": [
                {
                    "arrival_airport": "BLR",
                    "arrival_date_time": "2018-09-29T18:30:00.000+0530",
                    "departure_airport": "DEL",
                    "departure_date_time": "2018-09-29T18:30:00.000+0530",
                    "flight_index": 1,
                    "routed": "N",
                    "segments": [
                        {
                            "arrival_airport": "BLR",
                            "arrival_date_time": "2018-09-29T21:10:00.000+0530",
                            "arrival_terminal": "",
                            "book_pcc": "CLEARTRIP",
                            "departure_airport": "DEL",
                            "departure_date_time": "2018-09-29T18:30:00.000+0530",
                            "departure_terminal": "3",
                            "duration": 9600,
                            "external_references": [
                                {
                                    "name": "segment_externaln",
                                    "value": "segment_externalv"
                                }
                            ],
                            "flight_number": "811",
                            "fop": "CC-PBN/CTAMEX*",
                            "marketing_airline": "9W",
                            "operating_airline": "9W",
                            "seq_no": 1,
                            "stopover_count": 0,
                            "sup_currency": "INR",
                            "sup_total_currency_rate": 1,
                            "supplier": "AMD",
                            "vendor_no": "VEND16519"
                        }
                    ]
                }
            ],
            "hold_inventory": "false",
            "id": 0,
            "journey_type": "O",
            "pax_infos": [
                {
                    "first_name": "jivan",
                    "last_name": "kotian",
                    "pax_type_code": "ADT",
                    "person_id": 41646138,
                    "seq_no": 1,
                    "title": "Mr",
                    "total_fare": 3330
                }
            ],
            "price_watch": "Y",
            "pricing_objects": [
                {
                    "cleartrip_sbc": 1.3775,
                    "congestion_charge": 281,
                    "cost_pricing_object": {
                        "congestion_charge": 281,
                        "fare_basis_code": "W2IPO",
                        "fare_category": "retail",
                        "fare_key": "supp_AMADEUS|si-bc-v2-8868502f-4b01-4175-9112-d4d85e342d53|fk_retail_9W_811_1538225700000_W2IPO_true_",
                        "fare_sub_type": "",
                        "pricing_elements": [
                            {
                                "amount": 1555,
                                "category": "BF",
                                "chnl_charge": "false",
                                "chnl_display": "false",
                                "chnl_refund": "false",
                                "code": "",
                                "usr_charge": "false",
                                "usr_display": "false",
                                "usr_refund": "false",
                                "wp_check": "false"
                            },
                            {
                                "amount": 1200,
                                "category": "TAX",
                                "chnl_charge": "false",
                                "chnl_display": "false",
                                "chnl_refund": "false",
                                "code": "YQ",
                                "usr_charge": "false",
                                "usr_display": "false",
                                "usr_refund": "false",
                                "wp_check": "false"
                            },
                            {
                                "amount": 125,
                                "category": "TAX",
                                "chnl_charge": "false",
                                "chnl_display": "false",
                                "chnl_refund": "false",
                                "code": "YR",
                                "usr_charge": "false",
                                "usr_display": "false",
                                "usr_refund": "false",
                                "wp_check": "false"
                            },
                            {
                                "amount": 144,
                                "category": "TAX",
                                "chnl_charge": "false",
                                "chnl_display": "false",
                                "chnl_refund": "false",
                                "code": "AIRLINE-MSC",
                                "usr_charge": "false",
                                "usr_display": "false",
                                "usr_refund": "false",
                                "wp_check": "false"
                            },
                            {
                                "amount": 12,
                                "category": "TAX",
                                "chnl_charge": "false",
                                "chnl_display": "false",
                                "chnl_refund": "false",
                                "code": "UDF",
                                "usr_charge": "false",
                                "usr_display": "false",
                                "usr_refund": "false",
                                "wp_check": "false"
                            },
                            {
                                "amount": 154,
                                "category": "TAX",
                                "chnl_charge": "false",
                                "chnl_display": "false",
                                "chnl_refund": "false",
                                "code": "PSF",
                                "usr_charge": "false",
                                "usr_display": "false",
                                "usr_refund": "false",
                                "wp_check": "false"
                            }
                        ],
                        "seq_no": 1,
                        "total_bf": 1555,
                        "total_fare": 3190,
                        "total_fee_baggage": 0,
                        "total_fee_con": 0,
                        "total_fee_meal": 0,
                        "total_fee_seat": 0,
                        "total_mkp": 0,
                        "total_tax": 1635,
                        "total_tax_airline_msc": 144,
                        "total_tax_airline_vat": 0,
                        "total_tax_amd_oct": 0,
                        "total_tax_cgst": 0,
                        "total_tax_ct_cgst": 0,
                        "total_tax_ct_igst": 0,
                        "total_tax_ct_sgst": 0,
                        "total_tax_ct_utgst": 0,
                        "total_tax_ct_vat": 0,
                        "total_tax_cute": 0,
                        "total_tax_igst": 0,
                        "total_tax_jn": 0,
                        "total_tax_oct": 0,
                        "total_tax_psf": 154,
                        "total_tax_sbc": 0,
                        "total_tax_sgst": 0,
                        "total_tax_ttf": 0,
                        "total_tax_udf": 12,
                        "total_tax_unknown": 0,
                        "total_tax_utgst": 0,
                        "total_tax_yq": 1200,
                        "total_tax_yr": 125
                    },
                    "fare_basis_code": "W2IPO",
                    "fare_category": "retail",
                    "fare_key": "fk_retail_9W_811_1538225700000_W2IPO_true_",
                    "fare_sub_type": "",
                    "net_agency_commission": 0,
                    "net_taxable_value": 140,
                    "pricing_elements": [
                        {
                            "amount": 1555,
                            "category": "BF",
                            "chnl_charge": "true",
                            "chnl_display": "true",
                            "chnl_refund": "true",
                            "code": "",
                            "usr_charge": "true",
                            "usr_display": "true",
                            "usr_refund": "true",
                            "wp_check": "true"
                        },
                        {
                            "amount": 1200,
                            "category": "TAX",
                            "chnl_charge": "true",
                            "chnl_display": "true",
                            "chnl_refund": "false",
                            "code": "YQ",
                            "usr_charge": "true",
                            "usr_display": "true",
                            "usr_refund": "false",
                            "wp_check": "true"
                        },
                        {
                            "amount": 125,
                            "category": "TAX",
                            "chnl_charge": "true",
                            "chnl_display": "true",
                            "chnl_refund": "false",
                            "code": "YR",
                            "usr_charge": "true",
                            "usr_display": "true",
                            "usr_refund": "false",
                            "wp_check": "true"
                        },
                        {
                            "amount": 144,
                            "category": "TAX",
                            "chnl_charge": "true",
                            "chnl_display": "true",
                            "chnl_refund": "false",
                            "code": "AIRLINE-MSC",
                            "usr_charge": "true",
                            "usr_display": "true",
                            "usr_refund": "false",
                            "wp_check": "true"
                        },
                        {
                            "amount": 12,
                            "category": "TAX",
                            "chnl_charge": "true",
                            "chnl_display": "true",
                            "chnl_refund": "false",
                            "code": "UDF",
                            "usr_charge": "true",
                            "usr_display": "true",
                            "usr_refund": "false",
                            "wp_check": "true"
                        },
                        {
                            "amount": 154,
                            "category": "TAX",
                            "chnl_charge": "true",
                            "chnl_display": "true",
                            "chnl_refund": "false",
                            "code": "PSF",
                            "usr_charge": "true",
                            "usr_display": "true",
                            "usr_refund": "false",
                            "wp_check": "true"
                        },
                        {
                            "amount": 0,
                            "category": "TAX",
                            "chnl_charge": "true",
                            "chnl_display": "true",
                            "chnl_refund": "false",
                            "code": "CUTE",
                            "usr_charge": "true",
                            "usr_display": "true",
                            "usr_refund": "false",
                            "wp_check": "true"
                        },
                        {
                            "amount": 0,
                            "category": "TAX",
                            "chnl_charge": "true",
                            "chnl_display": "true",
                            "chnl_refund": "false",
                            "code": "OCT",
                            "usr_charge": "true",
                            "usr_display": "true",
                            "usr_refund": "false",
                            "wp_check": "true"
                        },
                        {
                            "amount": -10,
                            "category": "CB",
                            "chnl_charge": "true",
                            "chnl_display": "true",
                            "chnl_refund": "false",
                            "code": "CTTEST-DOMESTIC",
                            "usr_charge": "true",
                            "usr_display": "true",
                            "usr_refund": "false",
                            "wp_check": "false"
                        },
                        {
                            "amount": 150,
                            "category": "FEE",
                            "chnl_charge": "true",
                            "chnl_display": "true",
                            "chnl_refund": "false",
                            "code": "GW",
                            "usr_charge": "true",
                            "usr_display": "true",
                            "usr_refund": "false",
                            "wp_check": "false"
                        },
                        {
                            "amount": 0,
                            "category": "TAX",
                            "chnl_charge": "true",
                            "chnl_display": "true",
                            "chnl_refund": "false",
                            "code": "GWST",
                            "usr_charge": "true",
                            "usr_display": "true",
                            "usr_refund": "false",
                            "wp_check": "false"
                        }
                    ],
                    "segment_amount": 3330,
                    "seq_no": 1,
                    "service_tax": 0,
                    "tax_base_st": 17.0259,
                    "tax_ecess": 0,
                    "tax_shecess": 0,
                    "total_base_fare": 1555,
                    "total_bos_dis_svc": 0,
                    "total_bos_tax_svc": 0,
                    "total_cashback": -10,
                    "total_dis_agency_commission": 0,
                    "total_dis_agency_discount": 0,
                    "total_discount": 0,
                    "total_fare": 3330,
                    "total_fee": 150,
                    "total_fee_agency_markup": 0,
                    "total_fee_airl_amd": 0,
                    "total_fee_amd": 0,
                    "total_fee_baggage": 0,
                    "total_fee_bundle": 0,
                    "total_fee_cncl": 0,
                    "total_fee_con": 0,
                    "total_fee_gw": 150,
                    "total_fee_meal": 0,
                    "total_fee_pgc": 0,
                    "total_fee_price_watch": 0,
                    "total_fee_seat": 0,
                    "total_fee_unknown": 0,
                    "total_markup": 0,
                    "total_mkp_mcmkp": 0,
                    "total_nc": 0,
                    "total_nc_agency_trans_fee": 0,
                    "total_nc_fee": 0,
                    "total_tax": 1635,
                    "total_tax_agency_comm_gst": 0,
                    "total_tax_agency_comm_tax": 0,
                    "total_tax_agency_trans_fee_tax": 0,
                    "total_tax_airline_msc": 144,
                    "total_tax_airline_vat": 0,
                    "total_tax_amd_oct": 0,
                    "total_tax_cgst": 0,
                    "total_tax_cleartrip_kkc": 0,
                    "total_tax_cleartrip_sbc": 0,
                    "total_tax_ct_cgst": 10.7,
                    "total_tax_ct_igst": 0,
                    "total_tax_ct_sgst": 10.7,
                    "total_tax_ct_utgst": 0,
                    "total_tax_ct_vat": 0,
                    "total_tax_cute": 0,
                    "total_tax_igst": 0,
                    "total_tax_jn": 0,
                    "total_tax_kkc": 0,
                    "total_tax_oct": 0,
                    "total_tax_psf": 154,
                    "total_tax_sbc": 0,
                    "total_tax_sgst": 0,
                    "total_tax_svc": 0,
                    "total_tax_ttf": 0,
                    "total_tax_unknown": 12,
                    "total_tax_utgst": 0,
                    "total_tax_yq": 1200,
                    "total_tax_yr": 125,
                    "total_wallet_cashback": 0
                }
            ],
            "total_fare": 3330
        }
    ],
    "amount": 3330,
    "bkg_type": "D",
    "booked_user_id": 41643226,
    "company_id": 110340,
    "contact_detail": {
        "address": "",
        "email": "sudip.bhandari@cleartrip.com",
        "first_name": "jivan",
        "last_name": "kotian",
        "mobile": "8310074018",
        "title": "Mr"
    },
    "currency": "INR",
    "customer_confirmation_eligible": "true",
    "customer_no": null,
    "domain": "qa.cleartrip.com",
    "email_id": "vatsal.j@cleartrip.com",
    "end_date_time": "2018-09-29T21:10:00.000+0530",
    "express_checkout": "true",
    "external_references": [
        {
            "name": "PTA_LATEST_TKT_DATE",
            "value": "2018-09-06T00:00:00"
        }
    ],
    "gst_detail": {
        "gst_holder_statecode": "27",
        "gst_holder_statename": "Maharashtra"
    },
    "itinerary_id": "6885755715-86f8-414b-a20a-aaa3f82b9f7a",
    "notes": [
        {
            "note": "Booking attempted with coupon:SHACHI",
            "subject": "Booking attempted with coupon:SHACHI",
            "user_id": 41643226
        }
    ],
    "site_language": "en",
    "start_date_time": "2018-09-29T18:30:00.000+0530",
    "tag_masters": [
        {
            "tag_name": "COUPON:SHACHI"
        }
    ],
    "travellers": "ADT: 1\n",
    "trip_name": "New Delhi - Bangalore one-way",
    "trip_type": 1,
    "txn_source_type": "ACCOUNT",
    "txns": [
        {
            "external_references": [
                {
                    "name": "RATERULE_CAMPAIGN_AIR",
                    "value": "{\"165280\":\"Markup for International multicity\"}"
                }
            ],
            "referer_domain": "local.cleartrip.com",
            "rreferer": "http://local.cleartrip.com/flights/results?origin=New+Delhi%2C+IN+-+Indira+Gandhi+Airport+",
            "source_id": "127.0.0.1",
            "source_type": "ACCOUNT",
            "status": "O",
            "txn_type": 1,
            "user_id": 41643226
        }
    ],
    "user_id": 41643226,
    "taxation_model": "reseller",
    "ct_gstin": "test",
    "has_revenue": "1",
    "ct_for_work": {
        "cashback_credited": 1000,
        "ct_for_work_user": "varalakshmi.venkateshaiah@cleartrip.com",
        "work_fare": 4100,
	"work_fare_type":"CORPORATE"
    }
}
