{
    "hotel_booking_infos": [{
        "stay_date": "2018-09-05T00:00:00.000+0530",
        "booking_status": "P",
        "seq_no": 1,
        "room_seq_no": 0,
        "room_rate_seq_no": 0,
        "voucher_number": "CHMM-8528300",
        "status_history": 0,
        "nri": "false",
        "inventory_remaining": 96,
        "auto_refill_inventory_count": 0,
        "base_rate_id": 5419720,
        "external_references": [{
            "name": "PAYMENT_ACCEPTED_AT_HOTEL",
            "value": "1000"
        }, {
            "name": "DESIGN_VERSION",
            "value": "v2"
        }, {
            "name": "room-type",
            "value": "Deluxe Room"
        }, {
            "name": "upd-res-url",
            "value": "/chmm/updatebooking?id=IFuLFZDKnDuuWFsoIyOdLg%3D%3D"
        }, {
            "name": "dp-coupon-booking-enabled",
            "value": "false"
        }]
    }]
}