{
  "train_bookings": [
    {
      "seq_no": 1,
      "train_routes": [
        {
          "seq_no": 1,
          "trains": [
            {
              "departure_date_time": "2018-10-10T15:00:00",
              "arrival_station": "RRB",
              "departure_station": "SBC",
              "train_name": "SBC SMET EXP",
              "train_type": null,
              "duration": 12300,
              "arrival_date_time": "2018-10-10T18:25:00",
              "booking_quota": "GN",
              "train_number": "20651",
              "distance": 211,
              "boarding_station": "SBC",
              "boarding_date_time": "2018-10-10T15:00:00",
              "seq_no": 1
            }
          ],
          "departure_station": "SBC",
          "departure_date_time": "2018-10-10T15:00:00",
          "arrival_station": "RRB",
          "arrival_date_time": "2018-10-10T18:25:00"
        }
      ],
      "train_fares": [
        {
          "seq_no": 1,
          "pricing_elements": [
            {
              "amount": 80.0,
              "code": "IRCTC-BF",
              "category": "BF"
            },
            {
              "amount": 15.0,
              "code": "IRCTC-RF",
              "category": "FEE"
            },
            {
              "amount": 15.0,
              "code": "IRCTC-SF",
              "category": "FEE"
            },
            {
              "amount": 0.58,
              "code": "IRCTC-TIC",
              "category": "FEE"
            },
            {
              "amount": 0.1,
              "code": "IRCTC-TIST",
              "category": "TAX"
            },
            {
              "amount": 0.0,
              "code": "CASH-BACK",
              "category": "CB"
            },
            {
              "amount": 16.95,
              "code": "CT-SVF",
              "category": "FEE"
            },
            {
              "amount": 1.53,
              "code": "CT-CGST",
              "category": "TAX"
            },
            {
              "amount": 1.53,
              "code": "CT-SGST",
              "category": "TAX"
            },
            {
              "amount": 0.0,
              "code": "CT-IGST",
              "category": "TAX"
            },
            {
              "amount": 1.68,
              "code": "GW",
              "category": "FEE"
            },
            {
              "amount": 0.15,
              "code": "GW-CGST",
              "category": "TAX"
            },
            {
              "amount": 0.15,
              "code": "GW-SGST",
              "category": "TAX"
            },
            {
              "amount": 0.0,
              "code": "GW-IGST",
              "category": "TAX"
            }
          ],
          "total_fare": 132.67,
          "total_base_fare": 80.0,
          "total_tax": 3.46,
          "total_tax_ct_st": 0.0,
          "total_tax_ct_cgst": 1.53,
          "total_tax_ct_sgst": 1.53,
          "total_tax_ct_igst": 0.0,
          "total_tax_gw_st": 0.0,
          "total_tax_gw_cgst": 0.15,
          "total_tax_gw_sgst": 0.15,
          "total_tax_gw_igst": 0.0,
          "total_tax_irctc_st": 0.0,
          "total_tax_unknown": 0.0,
          "total_tax_irctc_tist": 0.1,
          "total_discount": 0.0,
          "total_fee_irctc_conc": 0.0,
          "total_dis_unknown": 0.0,
          "total_markup": 0.0,
          "total_cashback": 0.0,
          "total_fee": 49.21,
          "total_fee_irctc_tc": 0.0,
          "total_fee_irctc_svf": 0.0,
          "total_fee_irctc_sf": 15.0,
          "total_fee_irctc_rf": 15.0,
          "total_fee_irctc_oc": 0.0,
          "total_fee_irctc_cc": 0.0,
          "total_fee_ct_svf": 16.95,
          "total_fee_gw": 1.68,
          "total_fee_unknown": 0.0,
          "total_nc": 0.0,
          "total_nc_fee": 0.0,
          "total_fee_irctc_tic": 0.58
        }
      ],
      "insurance_opted": "true",
      "external_references": [
        {
          "name": "ITINERARY-ID",
          "value": "eb81cc80a1840136e85a7a163e9fe348"
        },
        {
          "name": "NGET",
          "value": "true"
        },
        {
          "name": "irctc_user_name",
          "value": "vinodrajendrarao"
        }
      ],
      "pax_list": [
        {
          "pax_type_code": "ADT",
          "meal_request_code": null,
          "age": "58",
          "last_name": "G",
          "first_name": "Lingarajappa",
          "title": "Mr",
          "seq_no": 1,
          "gender": "M",
          "person_id": "41625106"
        }
      ],
      "booking_info_list": [
        {
          "train_fare_seq_no": 1,
          "train_seq_no": 1,
          "pax_info_seq_no": 1,
          "seq_no": 1,
          "booking_class": "2S",
          "booking_status": "Z"
        }
      ]
    }
  ],
  "amount": 133,
  "external_references": [
    {
      "name": "contact-user-id",
      "value": "13941099"
    },
    {
      "name": "Apache",
      "value": "a54df577.576797d58f5f5"
    }
  ],
  "itinerary_id": "eb81cc80a1840136e85a7a163e9fe348",
  "domain": "cleartrip.com",
  "company_id": "110340",
  "currency": "INR",
  "trip_name": "Bangalore - Birur one-way",
  "notes": null,
  "user_id": "13941099",
  "gst_detail": {
    "gst_holder_statename": "Maharashtra",
    "gst_holder_statecode": 27,
    "gst_number": "",
    "gst_holder_address": "",
    "gst_holder_name": ""
  },
  "contact_detail": {
    "city_name": null,
    "country_id": null,
    "state_id": null,
    "city_id": null,
    "landline": null,
    "mobile": "9743049515",
    "address": null,
    "email": "vinay.raj@cleartrip.com",
    "state_name": null,
    "country_name": null,
    "pin_code": null,
    "title": "Mr",
    "first_name": "vinay",
    "last_name": "raj"
  },
  "txns": [
    {
      "source_type": "ACCOUNT",
      "source_id": "172.16.32.202",
      "user_id": "13941099",
      "txn_type": 1,
      "misc": "  {\"log_booking_service\":\"tripService\"} "
    }
  ],
  "trip_type": 4,
  "train": 1,
  "start_date_time": "2018-10-10T15:00:00",
  "end_date_time": "2018-10-10T18:25:00",
  "travellers": "---\nADT: 1\n"
}